…
output_0 = bind_rows(map(.x = 30, ~ rerun(5000, sim_data(.x))))

output_0 = 
  output_0 %>%
  tibble(
    mu = 0)

output_0
```

    ## # A tibble: 5,000 x 3
    ##    estimate p.value    mu
    ##       <dbl>   <dbl> <dbl>
    ##  1    0.277   0.674     0
    ##  2    0.745   0.375     0
    ##  3   -0.493   0.588     0
    ##  4    0.266   0.773     0
    ##  5    0.205   0.795     0
    ##  6    0.931   0.415     0
    ##  7    0.413   0.580     0
    ##  8    0.793   0.397     0
    ##  9   -0.515   0.598     0
    ## 10    1.35    0.181     0
    ## # … with 4,990 more rows
…
output_1 = 
  output_1 %>%
  tibble(
    mu = c(1, 2, 3, 4, 5, 6)
  ) %>%
  unnest()

output_1
```

    ## # A tibble: 30,000 x 3
    ##    estimate p.value    mu
    ##       <dbl>   <dbl> <dbl>
    ##  1    0.699  0.519      1
    ##  2    1.67   0.0896     1
    ##  3    0.375  0.574      1
    ##  4    1.50   0.225      1
    ##  5    0.392  0.712      1
    ##  6    0.392  0.695      1
    ##  7    0.893  0.338      1
    ##  8    0.774  0.205      1
    ##  9    0.534  0.426      1
    ## 10    1.00   0.249      1
    ## # … with 29,990 more rows

Final ouput dataset containing estimate, p-value, and respective mu
value of simulations with specified sample size, mu values, and sigma
value.

``` r
output = bind_rows(output_0, output_1)

output
```

    ## # A tibble: 35,000 x 3
    ##    estimate p.value    mu
    ##       <dbl>   <dbl> <dbl>
    ##  1    0.277   0.674     0
    ##  2    0.745   0.375     0
    ##  3   -0.493   0.588     0
    ##  4    0.266   0.773     0
    ##  5    0.205   0.795     0
    ##  6    0.931   0.415     0
    ##  7    0.413   0.580     0
    ##  8    0.793   0.397     0
    ##  9   -0.515   0.598     0
    ## 10    1.35    0.181     0
    ## # … with 34,990 more rows
…
